{
  "Status": 200,
  "Body": {
    "accountId": "act_A-CCT5678",
    "contractId": "ctr_K-0N7RAK71",
    "groupId": "grp_54321",
    "nextLink": "/papi/v1/properties/prp_173136/hostnames-activation?offset=2&groupId=grp_15225&contractId=ctr_K-0N7RAK7&limit=2",
    "totalItems": 4,
    "currentItemCount": 2,
    "hostnameActivations": {
      "items": [
        {
          "hostnameActivationId": "atv_1696985",
          "propertyName": "example.com",
          "propertyId": "prp_173136",
          "propertyVersion": 1,
          "network": "STAGING",
          "activationType": "ACTIVATE",
          "status": "ACTIVE",
          "submitDate": "2014-03-05T02:22:12Z",
          "updateDate": "2014-03-04T21:12:57Z",
          "note": "Sample activation",
          "notifyEmails": [
            "you@example.com",
            "them@example.com"
          ]
        },
        {
          "hostnameActivationId": "atv_1696986",
          "propertyName": "example.com",
          "propertyId": "prp_173136",
          "propertyVersion": 1,
          "network": "PRODUCTION",
          "activationType": "ACTIVATE",
          "status": "PENDING",
          "submitDate": "2014-03-02T02:22:12Z",
          "updateDate": "2014-03-01T21:12:57Z",
          "note": "Sample activation",
          "notifyEmails": [
            "you@example.com",
            "them@example.com"
          ]
        }
      ]
    }
  },
  "Headers": {
    "X-RateLimit-Remaining": "",
    "X-RateLimit-Limit": ""
  }
}
